...............
----------------------------------------------------------------------
Ran 15 tests in 0.001s

OK
Name               Stmts   Miss Branch BrPart  Cover   Missing
--------------------------------------------------------------
Diplomacy.py          64      0     48      0   100%
TestDiplomacy.py      69      0      2      0   100%
--------------------------------------------------------------
TOTAL                133      0     50      0   100%
